Makarov pistol;RUSSIA;54;22;-108;1975;55;0.55;5.223
Tokarev pistol;USSR;12;4;2;1998;13;0.23;6.23
SR-1 Vektor;RUSSIA;2;-43;3;2013;15;0.65;3.544
Barret XM500;USA;6;6;3;1994;78;0.12;12.4
Saiga-12;RUSSIA;123;2;-12;2015;23;0.98;3.2
VKs rifle;GERMANY;-12;3;76;1937;86;-0.12;1.764
SIG-SG 510;GERMANY;28;9;43;1970;30;0.20;6.3
RPK-74;RUSSIA;0;76;2;2005;76;-6.23;7.123
RPG-28 Klyukva;RUSSIA;1;-65;2;1945;2;7.60;0.121
FN FAL;BELGIUM;5;5;5;2020;65;54.20;11.765
